Spark Command: /usr/lib/jvm/java-7-openjdk-amd64/jre/bin/java -cp /opt/bigdata/spark-2.0.1-bin-hadoop2.7/conf/:/opt/bigdata/spark-2.0.1-bin-hadoop2.7/jars/* -Xmx1g -XX:MaxPermSize=256m org.apache.spark.deploy.worker.Worker --webui-port 8081 spark://frontend.clasdpc.lan:7077
========================================
Using Spark's default log4j profile: org/apache/spark/log4j-defaults.properties
16/10/14 16:45:19 INFO Worker: Started daemon with process name: 17909@node02
16/10/14 16:45:19 INFO SignalUtils: Registered signal handler for TERM
16/10/14 16:45:19 INFO SignalUtils: Registered signal handler for HUP
16/10/14 16:45:19 INFO SignalUtils: Registered signal handler for INT
16/10/14 16:45:20 WARN NativeCodeLoader: Unable to load native-hadoop library for your platform... using builtin-java classes where applicable
16/10/14 16:45:20 INFO SecurityManager: Changing view acls to: root
16/10/14 16:45:20 INFO SecurityManager: Changing modify acls to: root
16/10/14 16:45:20 INFO SecurityManager: Changing view acls groups to: 
16/10/14 16:45:20 INFO SecurityManager: Changing modify acls groups to: 
16/10/14 16:45:20 INFO SecurityManager: SecurityManager: authentication disabled; ui acls disabled; users  with view permissions: Set(root); groups with view permissions: Set(); users  with modify permissions: Set(root); groups with modify permissions: Set()
16/10/14 16:45:21 INFO Utils: Successfully started service 'sparkWorker' on port 42546.
16/10/14 16:45:21 INFO Worker: Starting Spark worker 192.168.0.20:42546 with 4 cores, 6.8 GB RAM
16/10/14 16:45:21 INFO Worker: Running Spark version 2.0.1
16/10/14 16:45:21 INFO Worker: Spark home: /opt/bigdata/spark-2.0.1-bin-hadoop2.7
16/10/14 16:45:21 INFO Utils: Successfully started service 'WorkerUI' on port 8081.
16/10/14 16:45:21 INFO WorkerWebUI: Bound WorkerWebUI to 0.0.0.0, and started at http://192.168.0.20:8081
16/10/14 16:45:21 INFO Worker: Connecting to master frontend.clasdpc.lan:7077...
16/10/14 16:45:21 INFO TransportClientFactory: Successfully created connection to frontend.clasdpc.lan/192.168.0.200:7077 after 39 ms (0 ms spent in bootstraps)
16/10/14 16:45:21 INFO Worker: Successfully registered with master spark://frontend.clasdpc.lan:7077
16/10/14 22:40:08 INFO Worker: frontend.clasdpc.lan:7077 Disassociated !
16/10/14 22:40:08 ERROR Worker: Connection to master failed! Waiting for master to reconnect...
16/10/14 22:40:08 INFO Worker: Connecting to master frontend.clasdpc.lan:7077...
16/10/14 22:40:08 INFO TransportClientFactory: Found inactive connection to frontend.clasdpc.lan/192.168.0.200:7077, creating a new one.
16/10/14 22:40:08 WARN Worker: Failed to connect to master frontend.clasdpc.lan:7077
org.apache.spark.SparkException: Exception thrown in awaitResult
	at org.apache.spark.rpc.RpcTimeout$$anonfun$1.applyOrElse(RpcTimeout.scala:77)
	at org.apache.spark.rpc.RpcTimeout$$anonfun$1.applyOrElse(RpcTimeout.scala:75)
	at scala.runtime.AbstractPartialFunction.apply(AbstractPartialFunction.scala:36)
	at org.apache.spark.rpc.RpcTimeout$$anonfun$addMessageIfTimeout$1.applyOrElse(RpcTimeout.scala:59)
	at org.apache.spark.rpc.RpcTimeout$$anonfun$addMessageIfTimeout$1.applyOrElse(RpcTimeout.scala:59)
	at scala.PartialFunction$OrElse.apply(PartialFunction.scala:167)
	at org.apache.spark.rpc.RpcTimeout.awaitResult(RpcTimeout.scala:83)
	at org.apache.spark.rpc.RpcEnv.setupEndpointRefByURI(RpcEnv.scala:88)
	at org.apache.spark.rpc.RpcEnv.setupEndpointRef(RpcEnv.scala:96)
	at org.apache.spark.deploy.worker.Worker$$anonfun$org$apache$spark$deploy$worker$Worker$$tryRegisterAllMasters$1$$anon$1.run(Worker.scala:216)
	at java.util.concurrent.Executors$RunnableAdapter.call(Executors.java:471)
	at java.util.concurrent.FutureTask.run(FutureTask.java:262)
	at java.util.concurrent.ThreadPoolExecutor.runWorker(ThreadPoolExecutor.java:1145)
	at java.util.concurrent.ThreadPoolExecutor$Worker.run(ThreadPoolExecutor.java:615)
	at java.lang.Thread.run(Thread.java:745)
Caused by: java.io.IOException: Failed to connect to frontend.clasdpc.lan/192.168.0.200:7077
	at org.apache.spark.network.client.TransportClientFactory.createClient(TransportClientFactory.java:228)
	at org.apache.spark.network.client.TransportClientFactory.createClient(TransportClientFactory.java:179)
	at org.apache.spark.rpc.netty.NettyRpcEnv.createClient(NettyRpcEnv.scala:197)
	at org.apache.spark.rpc.netty.Outbox$$anon$1.call(Outbox.scala:191)
	at org.apache.spark.rpc.netty.Outbox$$anon$1.call(Outbox.scala:187)
	... 4 more
Caused by: java.net.ConnectException: Connection refused: frontend.clasdpc.lan/192.168.0.200:7077
	at sun.nio.ch.SocketChannelImpl.checkConnect(Native Method)
	at sun.nio.ch.SocketChannelImpl.finishConnect(SocketChannelImpl.java:744)
	at io.netty.channel.socket.nio.NioSocketChannel.doFinishConnect(NioSocketChannel.java:224)
	at io.netty.channel.nio.AbstractNioChannel$AbstractNioUnsafe.finishConnect(AbstractNioChannel.java:289)
	at io.netty.channel.nio.NioEventLoop.processSelectedKey(NioEventLoop.java:528)
	at io.netty.channel.nio.NioEventLoop.processSelectedKeysOptimized(NioEventLoop.java:468)
	at io.netty.channel.nio.NioEventLoop.processSelectedKeys(NioEventLoop.java:382)
	at io.netty.channel.nio.NioEventLoop.run(NioEventLoop.java:354)
	at io.netty.util.concurrent.SingleThreadEventExecutor$2.run(SingleThreadEventExecutor.java:111)
	... 1 more
16/10/14 22:40:17 INFO Worker: Retrying connection to master (attempt # 1)
16/10/14 22:40:17 INFO Worker: Connecting to master frontend.clasdpc.lan:7077...
16/10/14 22:40:17 INFO TransportClientFactory: Found inactive connection to frontend.clasdpc.lan/192.168.0.200:7077, creating a new one.
16/10/14 22:40:17 WARN Worker: Failed to connect to master frontend.clasdpc.lan:7077
org.apache.spark.SparkException: Exception thrown in awaitResult
	at org.apache.spark.rpc.RpcTimeout$$anonfun$1.applyOrElse(RpcTimeout.scala:77)
	at org.apache.spark.rpc.RpcTimeout$$anonfun$1.applyOrElse(RpcTimeout.scala:75)
	at scala.runtime.AbstractPartialFunction.apply(AbstractPartialFunction.scala:36)
	at org.apache.spark.rpc.RpcTimeout$$anonfun$addMessageIfTimeout$1.applyOrElse(RpcTimeout.scala:59)
	at org.apache.spark.rpc.RpcTimeout$$anonfun$addMessageIfTimeout$1.applyOrElse(RpcTimeout.scala:59)
	at scala.PartialFunction$OrElse.apply(PartialFunction.scala:167)
	at org.apache.spark.rpc.RpcTimeout.awaitResult(RpcTimeout.scala:83)
	at org.apache.spark.rpc.RpcEnv.setupEndpointRefByURI(RpcEnv.scala:88)
	at org.apache.spark.rpc.RpcEnv.setupEndpointRef(RpcEnv.scala:96)
	at org.apache.spark.deploy.worker.Worker$$anonfun$org$apache$spark$deploy$worker$Worker$$reregisterWithMaster$1$$anon$2.run(Worker.scala:272)
	at java.util.concurrent.Executors$RunnableAdapter.call(Executors.java:471)
	at java.util.concurrent.FutureTask.run(FutureTask.java:262)
	at java.util.concurrent.ThreadPoolExecutor.runWorker(ThreadPoolExecutor.java:1145)
	at java.util.concurrent.ThreadPoolExecutor$Worker.run(ThreadPoolExecutor.java:615)
	at java.lang.Thread.run(Thread.java:745)
Caused by: java.io.IOException: Failed to connect to frontend.clasdpc.lan/192.168.0.200:7077
	at org.apache.spark.network.client.TransportClientFactory.createClient(TransportClientFactory.java:228)
	at org.apache.spark.network.client.TransportClientFactory.createClient(TransportClientFactory.java:179)
	at org.apache.spark.rpc.netty.NettyRpcEnv.createClient(NettyRpcEnv.scala:197)
	at org.apache.spark.rpc.netty.Outbox$$anon$1.call(Outbox.scala:191)
	at org.apache.spark.rpc.netty.Outbox$$anon$1.call(Outbox.scala:187)
	... 4 more
Caused by: java.net.ConnectException: Connection refused: frontend.clasdpc.lan/192.168.0.200:7077
	at sun.nio.ch.SocketChannelImpl.checkConnect(Native Method)
	at sun.nio.ch.SocketChannelImpl.finishConnect(SocketChannelImpl.java:744)
	at io.netty.channel.socket.nio.NioSocketChannel.doFinishConnect(NioSocketChannel.java:224)
	at io.netty.channel.nio.AbstractNioChannel$AbstractNioUnsafe.finishConnect(AbstractNioChannel.java:289)
	at io.netty.channel.nio.NioEventLoop.processSelectedKey(NioEventLoop.java:528)
	at io.netty.channel.nio.NioEventLoop.processSelectedKeysOptimized(NioEventLoop.java:468)
	at io.netty.channel.nio.NioEventLoop.processSelectedKeys(NioEventLoop.java:382)
	at io.netty.channel.nio.NioEventLoop.run(NioEventLoop.java:354)
	at io.netty.util.concurrent.SingleThreadEventExecutor$2.run(SingleThreadEventExecutor.java:111)
	... 1 more
16/10/14 22:40:26 INFO Worker: Retrying connection to master (attempt # 2)
16/10/14 22:40:26 INFO Worker: Connecting to master frontend.clasdpc.lan:7077...
16/10/14 22:40:26 INFO TransportClientFactory: Found inactive connection to frontend.clasdpc.lan/192.168.0.200:7077, creating a new one.
16/10/14 22:40:26 WARN Worker: Failed to connect to master frontend.clasdpc.lan:7077
org.apache.spark.SparkException: Exception thrown in awaitResult
	at org.apache.spark.rpc.RpcTimeout$$anonfun$1.applyOrElse(RpcTimeout.scala:77)
	at org.apache.spark.rpc.RpcTimeout$$anonfun$1.applyOrElse(RpcTimeout.scala:75)
	at scala.runtime.AbstractPartialFunction.apply(AbstractPartialFunction.scala:36)
	at org.apache.spark.rpc.RpcTimeout$$anonfun$addMessageIfTimeout$1.applyOrElse(RpcTimeout.scala:59)
	at org.apache.spark.rpc.RpcTimeout$$anonfun$addMessageIfTimeout$1.applyOrElse(RpcTimeout.scala:59)
	at scala.PartialFunction$OrElse.apply(PartialFunction.scala:167)
	at org.apache.spark.rpc.RpcTimeout.awaitResult(RpcTimeout.scala:83)
	at org.apache.spark.rpc.RpcEnv.setupEndpointRefByURI(RpcEnv.scala:88)
	at org.apache.spark.rpc.RpcEnv.setupEndpointRef(RpcEnv.scala:96)
	at org.apache.spark.deploy.worker.Worker$$anonfun$org$apache$spark$deploy$worker$Worker$$reregisterWithMaster$1$$anon$2.run(Worker.scala:272)
	at java.util.concurrent.Executors$RunnableAdapter.call(Executors.java:471)
	at java.util.concurrent.FutureTask.run(FutureTask.java:262)
	at java.util.concurrent.ThreadPoolExecutor.runWorker(ThreadPoolExecutor.java:1145)
	at java.util.concurrent.ThreadPoolExecutor$Worker.run(ThreadPoolExecutor.java:615)
	at java.lang.Thread.run(Thread.java:745)
Caused by: java.io.IOException: Failed to connect to frontend.clasdpc.lan/192.168.0.200:7077
	at org.apache.spark.network.client.TransportClientFactory.createClient(TransportClientFactory.java:228)
	at org.apache.spark.network.client.TransportClientFactory.createClient(TransportClientFactory.java:179)
	at org.apache.spark.rpc.netty.NettyRpcEnv.createClient(NettyRpcEnv.scala:197)
	at org.apache.spark.rpc.netty.Outbox$$anon$1.call(Outbox.scala:191)
	at org.apache.spark.rpc.netty.Outbox$$anon$1.call(Outbox.scala:187)
	... 4 more
Caused by: java.net.ConnectException: Connection refused: frontend.clasdpc.lan/192.168.0.200:7077
	at sun.nio.ch.SocketChannelImpl.checkConnect(Native Method)
	at sun.nio.ch.SocketChannelImpl.finishConnect(SocketChannelImpl.java:744)
	at io.netty.channel.socket.nio.NioSocketChannel.doFinishConnect(NioSocketChannel.java:224)
	at io.netty.channel.nio.AbstractNioChannel$AbstractNioUnsafe.finishConnect(AbstractNioChannel.java:289)
	at io.netty.channel.nio.NioEventLoop.processSelectedKey(NioEventLoop.java:528)
	at io.netty.channel.nio.NioEventLoop.processSelectedKeysOptimized(NioEventLoop.java:468)
	at io.netty.channel.nio.NioEventLoop.processSelectedKeys(NioEventLoop.java:382)
	at io.netty.channel.nio.NioEventLoop.run(NioEventLoop.java:354)
	at io.netty.util.concurrent.SingleThreadEventExecutor$2.run(SingleThreadEventExecutor.java:111)
	... 1 more
16/10/14 22:40:35 INFO Worker: Retrying connection to master (attempt # 3)
16/10/14 22:40:35 INFO Worker: Connecting to master frontend.clasdpc.lan:7077...
16/10/14 22:40:35 INFO TransportClientFactory: Found inactive connection to frontend.clasdpc.lan/192.168.0.200:7077, creating a new one.
16/10/14 22:40:35 WARN Worker: Failed to connect to master frontend.clasdpc.lan:7077
org.apache.spark.SparkException: Exception thrown in awaitResult
	at org.apache.spark.rpc.RpcTimeout$$anonfun$1.applyOrElse(RpcTimeout.scala:77)
	at org.apache.spark.rpc.RpcTimeout$$anonfun$1.applyOrElse(RpcTimeout.scala:75)
	at scala.runtime.AbstractPartialFunction.apply(AbstractPartialFunction.scala:36)
	at org.apache.spark.rpc.RpcTimeout$$anonfun$addMessageIfTimeout$1.applyOrElse(RpcTimeout.scala:59)
	at org.apache.spark.rpc.RpcTimeout$$anonfun$addMessageIfTimeout$1.applyOrElse(RpcTimeout.scala:59)
	at scala.PartialFunction$OrElse.apply(PartialFunction.scala:167)
	at org.apache.spark.rpc.RpcTimeout.awaitResult(RpcTimeout.scala:83)
	at org.apache.spark.rpc.RpcEnv.setupEndpointRefByURI(RpcEnv.scala:88)
	at org.apache.spark.rpc.RpcEnv.setupEndpointRef(RpcEnv.scala:96)
	at org.apache.spark.deploy.worker.Worker$$anonfun$org$apache$spark$deploy$worker$Worker$$reregisterWithMaster$1$$anon$2.run(Worker.scala:272)
	at java.util.concurrent.Executors$RunnableAdapter.call(Executors.java:471)
	at java.util.concurrent.FutureTask.run(FutureTask.java:262)
	at java.util.concurrent.ThreadPoolExecutor.runWorker(ThreadPoolExecutor.java:1145)
	at java.util.concurrent.ThreadPoolExecutor$Worker.run(ThreadPoolExecutor.java:615)
	at java.lang.Thread.run(Thread.java:745)
Caused by: java.io.IOException: Failed to connect to frontend.clasdpc.lan/192.168.0.200:7077
	at org.apache.spark.network.client.TransportClientFactory.createClient(TransportClientFactory.java:228)
	at org.apache.spark.network.client.TransportClientFactory.createClient(TransportClientFactory.java:179)
	at org.apache.spark.rpc.netty.NettyRpcEnv.createClient(NettyRpcEnv.scala:197)
	at org.apache.spark.rpc.netty.Outbox$$anon$1.call(Outbox.scala:191)
	at org.apache.spark.rpc.netty.Outbox$$anon$1.call(Outbox.scala:187)
	... 4 more
Caused by: java.net.ConnectException: Connection refused: frontend.clasdpc.lan/192.168.0.200:7077
	at sun.nio.ch.SocketChannelImpl.checkConnect(Native Method)
	at sun.nio.ch.SocketChannelImpl.finishConnect(SocketChannelImpl.java:744)
	at io.netty.channel.socket.nio.NioSocketChannel.doFinishConnect(NioSocketChannel.java:224)
	at io.netty.channel.nio.AbstractNioChannel$AbstractNioUnsafe.finishConnect(AbstractNioChannel.java:289)
	at io.netty.channel.nio.NioEventLoop.processSelectedKey(NioEventLoop.java:528)
	at io.netty.channel.nio.NioEventLoop.processSelectedKeysOptimized(NioEventLoop.java:468)
	at io.netty.channel.nio.NioEventLoop.processSelectedKeys(NioEventLoop.java:382)
	at io.netty.channel.nio.NioEventLoop.run(NioEventLoop.java:354)
	at io.netty.util.concurrent.SingleThreadEventExecutor$2.run(SingleThreadEventExecutor.java:111)
	... 1 more
16/10/14 22:40:44 INFO Worker: Retrying connection to master (attempt # 4)
16/10/14 22:40:44 INFO Worker: Connecting to master frontend.clasdpc.lan:7077...
16/10/14 22:40:44 INFO TransportClientFactory: Found inactive connection to frontend.clasdpc.lan/192.168.0.200:7077, creating a new one.
16/10/14 22:40:44 WARN Worker: Failed to connect to master frontend.clasdpc.lan:7077
org.apache.spark.SparkException: Exception thrown in awaitResult
	at org.apache.spark.rpc.RpcTimeout$$anonfun$1.applyOrElse(RpcTimeout.scala:77)
	at org.apache.spark.rpc.RpcTimeout$$anonfun$1.applyOrElse(RpcTimeout.scala:75)
	at scala.runtime.AbstractPartialFunction.apply(AbstractPartialFunction.scala:36)
	at org.apache.spark.rpc.RpcTimeout$$anonfun$addMessageIfTimeout$1.applyOrElse(RpcTimeout.scala:59)
	at org.apache.spark.rpc.RpcTimeout$$anonfun$addMessageIfTimeout$1.applyOrElse(RpcTimeout.scala:59)
	at scala.PartialFunction$OrElse.apply(PartialFunction.scala:167)
	at org.apache.spark.rpc.RpcTimeout.awaitResult(RpcTimeout.scala:83)
	at org.apache.spark.rpc.RpcEnv.setupEndpointRefByURI(RpcEnv.scala:88)
	at org.apache.spark.rpc.RpcEnv.setupEndpointRef(RpcEnv.scala:96)
	at org.apache.spark.deploy.worker.Worker$$anonfun$org$apache$spark$deploy$worker$Worker$$reregisterWithMaster$1$$anon$2.run(Worker.scala:272)
	at java.util.concurrent.Executors$RunnableAdapter.call(Executors.java:471)
	at java.util.concurrent.FutureTask.run(FutureTask.java:262)
	at java.util.concurrent.ThreadPoolExecutor.runWorker(ThreadPoolExecutor.java:1145)
	at java.util.concurrent.ThreadPoolExecutor$Worker.run(ThreadPoolExecutor.java:615)
	at java.lang.Thread.run(Thread.java:745)
Caused by: java.io.IOException: Failed to connect to frontend.clasdpc.lan/192.168.0.200:7077
	at org.apache.spark.network.client.TransportClientFactory.createClient(TransportClientFactory.java:228)
	at org.apache.spark.network.client.TransportClientFactory.createClient(TransportClientFactory.java:179)
	at org.apache.spark.rpc.netty.NettyRpcEnv.createClient(NettyRpcEnv.scala:197)
	at org.apache.spark.rpc.netty.Outbox$$anon$1.call(Outbox.scala:191)
	at org.apache.spark.rpc.netty.Outbox$$anon$1.call(Outbox.scala:187)
	... 4 more
Caused by: java.net.ConnectException: Connection refused: frontend.clasdpc.lan/192.168.0.200:7077
	at sun.nio.ch.SocketChannelImpl.checkConnect(Native Method)
	at sun.nio.ch.SocketChannelImpl.finishConnect(SocketChannelImpl.java:744)
	at io.netty.channel.socket.nio.NioSocketChannel.doFinishConnect(NioSocketChannel.java:224)
	at io.netty.channel.nio.AbstractNioChannel$AbstractNioUnsafe.finishConnect(AbstractNioChannel.java:289)
	at io.netty.channel.nio.NioEventLoop.processSelectedKey(NioEventLoop.java:528)
	at io.netty.channel.nio.NioEventLoop.processSelectedKeysOptimized(NioEventLoop.java:468)
	at io.netty.channel.nio.NioEventLoop.processSelectedKeys(NioEventLoop.java:382)
	at io.netty.channel.nio.NioEventLoop.run(NioEventLoop.java:354)
	at io.netty.util.concurrent.SingleThreadEventExecutor$2.run(SingleThreadEventExecutor.java:111)
	... 1 more
16/10/14 22:40:53 INFO Worker: Retrying connection to master (attempt # 5)
16/10/14 22:40:53 INFO Worker: Connecting to master frontend.clasdpc.lan:7077...
16/10/14 22:40:53 INFO TransportClientFactory: Found inactive connection to frontend.clasdpc.lan/192.168.0.200:7077, creating a new one.
16/10/14 22:40:53 WARN Worker: Failed to connect to master frontend.clasdpc.lan:7077
org.apache.spark.SparkException: Exception thrown in awaitResult
	at org.apache.spark.rpc.RpcTimeout$$anonfun$1.applyOrElse(RpcTimeout.scala:77)
	at org.apache.spark.rpc.RpcTimeout$$anonfun$1.applyOrElse(RpcTimeout.scala:75)
	at scala.runtime.AbstractPartialFunction.apply(AbstractPartialFunction.scala:36)
	at org.apache.spark.rpc.RpcTimeout$$anonfun$addMessageIfTimeout$1.applyOrElse(RpcTimeout.scala:59)
	at org.apache.spark.rpc.RpcTimeout$$anonfun$addMessageIfTimeout$1.applyOrElse(RpcTimeout.scala:59)
	at scala.PartialFunction$OrElse.apply(PartialFunction.scala:167)
	at org.apache.spark.rpc.RpcTimeout.awaitResult(RpcTimeout.scala:83)
	at org.apache.spark.rpc.RpcEnv.setupEndpointRefByURI(RpcEnv.scala:88)
	at org.apache.spark.rpc.RpcEnv.setupEndpointRef(RpcEnv.scala:96)
	at org.apache.spark.deploy.worker.Worker$$anonfun$org$apache$spark$deploy$worker$Worker$$reregisterWithMaster$1$$anon$2.run(Worker.scala:272)
	at java.util.concurrent.Executors$RunnableAdapter.call(Executors.java:471)
	at java.util.concurrent.FutureTask.run(FutureTask.java:262)
	at java.util.concurrent.ThreadPoolExecutor.runWorker(ThreadPoolExecutor.java:1145)
	at java.util.concurrent.ThreadPoolExecutor$Worker.run(ThreadPoolExecutor.java:615)
	at java.lang.Thread.run(Thread.java:745)
Caused by: java.io.IOException: Failed to connect to frontend.clasdpc.lan/192.168.0.200:7077
	at org.apache.spark.network.client.TransportClientFactory.createClient(TransportClientFactory.java:228)
	at org.apache.spark.network.client.TransportClientFactory.createClient(TransportClientFactory.java:179)
	at org.apache.spark.rpc.netty.NettyRpcEnv.createClient(NettyRpcEnv.scala:197)
	at org.apache.spark.rpc.netty.Outbox$$anon$1.call(Outbox.scala:191)
	at org.apache.spark.rpc.netty.Outbox$$anon$1.call(Outbox.scala:187)
	... 4 more
Caused by: java.net.ConnectException: Connection refused: frontend.clasdpc.lan/192.168.0.200:7077
	at sun.nio.ch.SocketChannelImpl.checkConnect(Native Method)
	at sun.nio.ch.SocketChannelImpl.finishConnect(SocketChannelImpl.java:744)
	at io.netty.channel.socket.nio.NioSocketChannel.doFinishConnect(NioSocketChannel.java:224)
	at io.netty.channel.nio.AbstractNioChannel$AbstractNioUnsafe.finishConnect(AbstractNioChannel.java:289)
	at io.netty.channel.nio.NioEventLoop.processSelectedKey(NioEventLoop.java:528)
	at io.netty.channel.nio.NioEventLoop.processSelectedKeysOptimized(NioEventLoop.java:468)
	at io.netty.channel.nio.NioEventLoop.processSelectedKeys(NioEventLoop.java:382)
	at io.netty.channel.nio.NioEventLoop.run(NioEventLoop.java:354)
	at io.netty.util.concurrent.SingleThreadEventExecutor$2.run(SingleThreadEventExecutor.java:111)
	... 1 more
16/10/14 22:41:02 INFO Worker: Retrying connection to master (attempt # 6)
16/10/14 22:41:02 INFO Worker: Connecting to master frontend.clasdpc.lan:7077...
16/10/14 22:41:02 INFO TransportClientFactory: Found inactive connection to frontend.clasdpc.lan/192.168.0.200:7077, creating a new one.
16/10/14 22:41:02 WARN Worker: Failed to connect to master frontend.clasdpc.lan:7077
org.apache.spark.SparkException: Exception thrown in awaitResult
	at org.apache.spark.rpc.RpcTimeout$$anonfun$1.applyOrElse(RpcTimeout.scala:77)
	at org.apache.spark.rpc.RpcTimeout$$anonfun$1.applyOrElse(RpcTimeout.scala:75)
	at scala.runtime.AbstractPartialFunction.apply(AbstractPartialFunction.scala:36)
	at org.apache.spark.rpc.RpcTimeout$$anonfun$addMessageIfTimeout$1.applyOrElse(RpcTimeout.scala:59)
	at org.apache.spark.rpc.RpcTimeout$$anonfun$addMessageIfTimeout$1.applyOrElse(RpcTimeout.scala:59)
	at scala.PartialFunction$OrElse.apply(PartialFunction.scala:167)
	at org.apache.spark.rpc.RpcTimeout.awaitResult(RpcTimeout.scala:83)
	at org.apache.spark.rpc.RpcEnv.setupEndpointRefByURI(RpcEnv.scala:88)
	at org.apache.spark.rpc.RpcEnv.setupEndpointRef(RpcEnv.scala:96)
	at org.apache.spark.deploy.worker.Worker$$anonfun$org$apache$spark$deploy$worker$Worker$$reregisterWithMaster$1$$anon$2.run(Worker.scala:272)
	at java.util.concurrent.Executors$RunnableAdapter.call(Executors.java:471)
	at java.util.concurrent.FutureTask.run(FutureTask.java:262)
	at java.util.concurrent.ThreadPoolExecutor.runWorker(ThreadPoolExecutor.java:1145)
	at java.util.concurrent.ThreadPoolExecutor$Worker.run(ThreadPoolExecutor.java:615)
	at java.lang.Thread.run(Thread.java:745)
Caused by: java.io.IOException: Failed to connect to frontend.clasdpc.lan/192.168.0.200:7077
	at org.apache.spark.network.client.TransportClientFactory.createClient(TransportClientFactory.java:228)
	at org.apache.spark.network.client.TransportClientFactory.createClient(TransportClientFactory.java:179)
	at org.apache.spark.rpc.netty.NettyRpcEnv.createClient(NettyRpcEnv.scala:197)
	at org.apache.spark.rpc.netty.Outbox$$anon$1.call(Outbox.scala:191)
	at org.apache.spark.rpc.netty.Outbox$$anon$1.call(Outbox.scala:187)
	... 4 more
Caused by: java.net.ConnectException: Connection refused: frontend.clasdpc.lan/192.168.0.200:7077
	at sun.nio.ch.SocketChannelImpl.checkConnect(Native Method)
	at sun.nio.ch.SocketChannelImpl.finishConnect(SocketChannelImpl.java:744)
	at io.netty.channel.socket.nio.NioSocketChannel.doFinishConnect(NioSocketChannel.java:224)
	at io.netty.channel.nio.AbstractNioChannel$AbstractNioUnsafe.finishConnect(AbstractNioChannel.java:289)
	at io.netty.channel.nio.NioEventLoop.processSelectedKey(NioEventLoop.java:528)
	at io.netty.channel.nio.NioEventLoop.processSelectedKeysOptimized(NioEventLoop.java:468)
	at io.netty.channel.nio.NioEventLoop.processSelectedKeys(NioEventLoop.java:382)
	at io.netty.channel.nio.NioEventLoop.run(NioEventLoop.java:354)
	at io.netty.util.concurrent.SingleThreadEventExecutor$2.run(SingleThreadEventExecutor.java:111)
	... 1 more
16/10/14 22:41:57 INFO Worker: Retrying connection to master (attempt # 7)
16/10/14 22:41:57 INFO Worker: Connecting to master frontend.clasdpc.lan:7077...
16/10/14 22:41:57 INFO TransportClientFactory: Found inactive connection to frontend.clasdpc.lan/192.168.0.200:7077, creating a new one.
16/10/14 22:41:57 WARN Worker: Failed to connect to master frontend.clasdpc.lan:7077
org.apache.spark.SparkException: Exception thrown in awaitResult
	at org.apache.spark.rpc.RpcTimeout$$anonfun$1.applyOrElse(RpcTimeout.scala:77)
	at org.apache.spark.rpc.RpcTimeout$$anonfun$1.applyOrElse(RpcTimeout.scala:75)
	at scala.runtime.AbstractPartialFunction.apply(AbstractPartialFunction.scala:36)
	at org.apache.spark.rpc.RpcTimeout$$anonfun$addMessageIfTimeout$1.applyOrElse(RpcTimeout.scala:59)
	at org.apache.spark.rpc.RpcTimeout$$anonfun$addMessageIfTimeout$1.applyOrElse(RpcTimeout.scala:59)
	at scala.PartialFunction$OrElse.apply(PartialFunction.scala:167)
	at org.apache.spark.rpc.RpcTimeout.awaitResult(RpcTimeout.scala:83)
	at org.apache.spark.rpc.RpcEnv.setupEndpointRefByURI(RpcEnv.scala:88)
	at org.apache.spark.rpc.RpcEnv.setupEndpointRef(RpcEnv.scala:96)
	at org.apache.spark.deploy.worker.Worker$$anonfun$org$apache$spark$deploy$worker$Worker$$reregisterWithMaster$1$$anon$2.run(Worker.scala:272)
	at java.util.concurrent.Executors$RunnableAdapter.call(Executors.java:471)
	at java.util.concurrent.FutureTask.run(FutureTask.java:262)
	at java.util.concurrent.ThreadPoolExecutor.runWorker(ThreadPoolExecutor.java:1145)
	at java.util.concurrent.ThreadPoolExecutor$Worker.run(ThreadPoolExecutor.java:615)
	at java.lang.Thread.run(Thread.java:745)
Caused by: java.io.IOException: Failed to connect to frontend.clasdpc.lan/192.168.0.200:7077
	at org.apache.spark.network.client.TransportClientFactory.createClient(TransportClientFactory.java:228)
	at org.apache.spark.network.client.TransportClientFactory.createClient(TransportClientFactory.java:179)
	at org.apache.spark.rpc.netty.NettyRpcEnv.createClient(NettyRpcEnv.scala:197)
	at org.apache.spark.rpc.netty.Outbox$$anon$1.call(Outbox.scala:191)
	at org.apache.spark.rpc.netty.Outbox$$anon$1.call(Outbox.scala:187)
	... 4 more
Caused by: java.net.ConnectException: Connection refused: frontend.clasdpc.lan/192.168.0.200:7077
	at sun.nio.ch.SocketChannelImpl.checkConnect(Native Method)
	at sun.nio.ch.SocketChannelImpl.finishConnect(SocketChannelImpl.java:744)
	at io.netty.channel.socket.nio.NioSocketChannel.doFinishConnect(NioSocketChannel.java:224)
	at io.netty.channel.nio.AbstractNioChannel$AbstractNioUnsafe.finishConnect(AbstractNioChannel.java:289)
	at io.netty.channel.nio.NioEventLoop.processSelectedKey(NioEventLoop.java:528)
	at io.netty.channel.nio.NioEventLoop.processSelectedKeysOptimized(NioEventLoop.java:468)
	at io.netty.channel.nio.NioEventLoop.processSelectedKeys(NioEventLoop.java:382)
	at io.netty.channel.nio.NioEventLoop.run(NioEventLoop.java:354)
	at io.netty.util.concurrent.SingleThreadEventExecutor$2.run(SingleThreadEventExecutor.java:111)
	... 1 more
16/10/14 22:42:52 INFO Worker: Retrying connection to master (attempt # 8)
16/10/14 22:42:52 INFO Worker: Connecting to master frontend.clasdpc.lan:7077...
16/10/14 22:42:52 INFO TransportClientFactory: Found inactive connection to frontend.clasdpc.lan/192.168.0.200:7077, creating a new one.
16/10/14 22:42:52 WARN Worker: Failed to connect to master frontend.clasdpc.lan:7077
org.apache.spark.SparkException: Exception thrown in awaitResult
	at org.apache.spark.rpc.RpcTimeout$$anonfun$1.applyOrElse(RpcTimeout.scala:77)
	at org.apache.spark.rpc.RpcTimeout$$anonfun$1.applyOrElse(RpcTimeout.scala:75)
	at scala.runtime.AbstractPartialFunction.apply(AbstractPartialFunction.scala:36)
	at org.apache.spark.rpc.RpcTimeout$$anonfun$addMessageIfTimeout$1.applyOrElse(RpcTimeout.scala:59)
	at org.apache.spark.rpc.RpcTimeout$$anonfun$addMessageIfTimeout$1.applyOrElse(RpcTimeout.scala:59)
	at scala.PartialFunction$OrElse.apply(PartialFunction.scala:167)
	at org.apache.spark.rpc.RpcTimeout.awaitResult(RpcTimeout.scala:83)
	at org.apache.spark.rpc.RpcEnv.setupEndpointRefByURI(RpcEnv.scala:88)
	at org.apache.spark.rpc.RpcEnv.setupEndpointRef(RpcEnv.scala:96)
	at org.apache.spark.deploy.worker.Worker$$anonfun$org$apache$spark$deploy$worker$Worker$$reregisterWithMaster$1$$anon$2.run(Worker.scala:272)
	at java.util.concurrent.Executors$RunnableAdapter.call(Executors.java:471)
	at java.util.concurrent.FutureTask.run(FutureTask.java:262)
	at java.util.concurrent.ThreadPoolExecutor.runWorker(ThreadPoolExecutor.java:1145)
	at java.util.concurrent.ThreadPoolExecutor$Worker.run(ThreadPoolExecutor.java:615)
	at java.lang.Thread.run(Thread.java:745)
Caused by: java.io.IOException: Failed to connect to frontend.clasdpc.lan/192.168.0.200:7077
	at org.apache.spark.network.client.TransportClientFactory.createClient(TransportClientFactory.java:228)
	at org.apache.spark.network.client.TransportClientFactory.createClient(TransportClientFactory.java:179)
	at org.apache.spark.rpc.netty.NettyRpcEnv.createClient(NettyRpcEnv.scala:197)
	at org.apache.spark.rpc.netty.Outbox$$anon$1.call(Outbox.scala:191)
	at org.apache.spark.rpc.netty.Outbox$$anon$1.call(Outbox.scala:187)
	... 4 more
Caused by: java.net.ConnectException: Connection refused: frontend.clasdpc.lan/192.168.0.200:7077
	at sun.nio.ch.SocketChannelImpl.checkConnect(Native Method)
	at sun.nio.ch.SocketChannelImpl.finishConnect(SocketChannelImpl.java:744)
	at io.netty.channel.socket.nio.NioSocketChannel.doFinishConnect(NioSocketChannel.java:224)
	at io.netty.channel.nio.AbstractNioChannel$AbstractNioUnsafe.finishConnect(AbstractNioChannel.java:289)
	at io.netty.channel.nio.NioEventLoop.processSelectedKey(NioEventLoop.java:528)
	at io.netty.channel.nio.NioEventLoop.processSelectedKeysOptimized(NioEventLoop.java:468)
	at io.netty.channel.nio.NioEventLoop.processSelectedKeys(NioEventLoop.java:382)
	at io.netty.channel.nio.NioEventLoop.run(NioEventLoop.java:354)
	at io.netty.util.concurrent.SingleThreadEventExecutor$2.run(SingleThreadEventExecutor.java:111)
	... 1 more
16/10/14 22:43:47 INFO Worker: Retrying connection to master (attempt # 9)
16/10/14 22:43:47 INFO Worker: Connecting to master frontend.clasdpc.lan:7077...
16/10/14 22:43:47 INFO TransportClientFactory: Found inactive connection to frontend.clasdpc.lan/192.168.0.200:7077, creating a new one.
16/10/14 22:43:47 WARN Worker: Failed to connect to master frontend.clasdpc.lan:7077
org.apache.spark.SparkException: Exception thrown in awaitResult
	at org.apache.spark.rpc.RpcTimeout$$anonfun$1.applyOrElse(RpcTimeout.scala:77)
	at org.apache.spark.rpc.RpcTimeout$$anonfun$1.applyOrElse(RpcTimeout.scala:75)
	at scala.runtime.AbstractPartialFunction.apply(AbstractPartialFunction.scala:36)
	at org.apache.spark.rpc.RpcTimeout$$anonfun$addMessageIfTimeout$1.applyOrElse(RpcTimeout.scala:59)
	at org.apache.spark.rpc.RpcTimeout$$anonfun$addMessageIfTimeout$1.applyOrElse(RpcTimeout.scala:59)
	at scala.PartialFunction$OrElse.apply(PartialFunction.scala:167)
	at org.apache.spark.rpc.RpcTimeout.awaitResult(RpcTimeout.scala:83)
	at org.apache.spark.rpc.RpcEnv.setupEndpointRefByURI(RpcEnv.scala:88)
	at org.apache.spark.rpc.RpcEnv.setupEndpointRef(RpcEnv.scala:96)
	at org.apache.spark.deploy.worker.Worker$$anonfun$org$apache$spark$deploy$worker$Worker$$reregisterWithMaster$1$$anon$2.run(Worker.scala:272)
	at java.util.concurrent.Executors$RunnableAdapter.call(Executors.java:471)
	at java.util.concurrent.FutureTask.run(FutureTask.java:262)
	at java.util.concurrent.ThreadPoolExecutor.runWorker(ThreadPoolExecutor.java:1145)
	at java.util.concurrent.ThreadPoolExecutor$Worker.run(ThreadPoolExecutor.java:615)
	at java.lang.Thread.run(Thread.java:745)
Caused by: java.io.IOException: Failed to connect to frontend.clasdpc.lan/192.168.0.200:7077
	at org.apache.spark.network.client.TransportClientFactory.createClient(TransportClientFactory.java:228)
	at org.apache.spark.network.client.TransportClientFactory.createClient(TransportClientFactory.java:179)
	at org.apache.spark.rpc.netty.NettyRpcEnv.createClient(NettyRpcEnv.scala:197)
	at org.apache.spark.rpc.netty.Outbox$$anon$1.call(Outbox.scala:191)
	at org.apache.spark.rpc.netty.Outbox$$anon$1.call(Outbox.scala:187)
	... 4 more
Caused by: java.net.ConnectException: Connection refused: frontend.clasdpc.lan/192.168.0.200:7077
	at sun.nio.ch.SocketChannelImpl.checkConnect(Native Method)
	at sun.nio.ch.SocketChannelImpl.finishConnect(SocketChannelImpl.java:744)
	at io.netty.channel.socket.nio.NioSocketChannel.doFinishConnect(NioSocketChannel.java:224)
	at io.netty.channel.nio.AbstractNioChannel$AbstractNioUnsafe.finishConnect(AbstractNioChannel.java:289)
	at io.netty.channel.nio.NioEventLoop.processSelectedKey(NioEventLoop.java:528)
	at io.netty.channel.nio.NioEventLoop.processSelectedKeysOptimized(NioEventLoop.java:468)
	at io.netty.channel.nio.NioEventLoop.processSelectedKeys(NioEventLoop.java:382)
	at io.netty.channel.nio.NioEventLoop.run(NioEventLoop.java:354)
	at io.netty.util.concurrent.SingleThreadEventExecutor$2.run(SingleThreadEventExecutor.java:111)
	... 1 more
16/10/14 22:44:42 INFO Worker: Retrying connection to master (attempt # 10)
16/10/14 22:44:42 INFO Worker: Connecting to master frontend.clasdpc.lan:7077...
16/10/14 22:44:42 INFO TransportClientFactory: Found inactive connection to frontend.clasdpc.lan/192.168.0.200:7077, creating a new one.
16/10/14 22:44:42 WARN Worker: Failed to connect to master frontend.clasdpc.lan:7077
org.apache.spark.SparkException: Exception thrown in awaitResult
	at org.apache.spark.rpc.RpcTimeout$$anonfun$1.applyOrElse(RpcTimeout.scala:77)
	at org.apache.spark.rpc.RpcTimeout$$anonfun$1.applyOrElse(RpcTimeout.scala:75)
	at scala.runtime.AbstractPartialFunction.apply(AbstractPartialFunction.scala:36)
	at org.apache.spark.rpc.RpcTimeout$$anonfun$addMessageIfTimeout$1.applyOrElse(RpcTimeout.scala:59)
	at org.apache.spark.rpc.RpcTimeout$$anonfun$addMessageIfTimeout$1.applyOrElse(RpcTimeout.scala:59)
	at scala.PartialFunction$OrElse.apply(PartialFunction.scala:167)
	at org.apache.spark.rpc.RpcTimeout.awaitResult(RpcTimeout.scala:83)
	at org.apache.spark.rpc.RpcEnv.setupEndpointRefByURI(RpcEnv.scala:88)
	at org.apache.spark.rpc.RpcEnv.setupEndpointRef(RpcEnv.scala:96)
	at org.apache.spark.deploy.worker.Worker$$anonfun$org$apache$spark$deploy$worker$Worker$$reregisterWithMaster$1$$anon$2.run(Worker.scala:272)
	at java.util.concurrent.Executors$RunnableAdapter.call(Executors.java:471)
	at java.util.concurrent.FutureTask.run(FutureTask.java:262)
	at java.util.concurrent.ThreadPoolExecutor.runWorker(ThreadPoolExecutor.java:1145)
	at java.util.concurrent.ThreadPoolExecutor$Worker.run(ThreadPoolExecutor.java:615)
	at java.lang.Thread.run(Thread.java:745)
Caused by: java.io.IOException: Failed to connect to frontend.clasdpc.lan/192.168.0.200:7077
	at org.apache.spark.network.client.TransportClientFactory.createClient(TransportClientFactory.java:228)
	at org.apache.spark.network.client.TransportClientFactory.createClient(TransportClientFactory.java:179)
	at org.apache.spark.rpc.netty.NettyRpcEnv.createClient(NettyRpcEnv.scala:197)
	at org.apache.spark.rpc.netty.Outbox$$anon$1.call(Outbox.scala:191)
	at org.apache.spark.rpc.netty.Outbox$$anon$1.call(Outbox.scala:187)
	... 4 more
Caused by: java.net.ConnectException: Connection refused: frontend.clasdpc.lan/192.168.0.200:7077
	at sun.nio.ch.SocketChannelImpl.checkConnect(Native Method)
	at sun.nio.ch.SocketChannelImpl.finishConnect(SocketChannelImpl.java:744)
	at io.netty.channel.socket.nio.NioSocketChannel.doFinishConnect(NioSocketChannel.java:224)
	at io.netty.channel.nio.AbstractNioChannel$AbstractNioUnsafe.finishConnect(AbstractNioChannel.java:289)
	at io.netty.channel.nio.NioEventLoop.processSelectedKey(NioEventLoop.java:528)
	at io.netty.channel.nio.NioEventLoop.processSelectedKeysOptimized(NioEventLoop.java:468)
	at io.netty.channel.nio.NioEventLoop.processSelectedKeys(NioEventLoop.java:382)
	at io.netty.channel.nio.NioEventLoop.run(NioEventLoop.java:354)
	at io.netty.util.concurrent.SingleThreadEventExecutor$2.run(SingleThreadEventExecutor.java:111)
	... 1 more
16/10/14 22:45:37 INFO Worker: Retrying connection to master (attempt # 11)
16/10/14 22:45:37 INFO Worker: Connecting to master frontend.clasdpc.lan:7077...
16/10/14 22:45:37 INFO TransportClientFactory: Found inactive connection to frontend.clasdpc.lan/192.168.0.200:7077, creating a new one.
16/10/14 22:45:37 WARN Worker: Failed to connect to master frontend.clasdpc.lan:7077
org.apache.spark.SparkException: Exception thrown in awaitResult
	at org.apache.spark.rpc.RpcTimeout$$anonfun$1.applyOrElse(RpcTimeout.scala:77)
	at org.apache.spark.rpc.RpcTimeout$$anonfun$1.applyOrElse(RpcTimeout.scala:75)
	at scala.runtime.AbstractPartialFunction.apply(AbstractPartialFunction.scala:36)
	at org.apache.spark.rpc.RpcTimeout$$anonfun$addMessageIfTimeout$1.applyOrElse(RpcTimeout.scala:59)
	at org.apache.spark.rpc.RpcTimeout$$anonfun$addMessageIfTimeout$1.applyOrElse(RpcTimeout.scala:59)
	at scala.PartialFunction$OrElse.apply(PartialFunction.scala:167)
	at org.apache.spark.rpc.RpcTimeout.awaitResult(RpcTimeout.scala:83)
	at org.apache.spark.rpc.RpcEnv.setupEndpointRefByURI(RpcEnv.scala:88)
	at org.apache.spark.rpc.RpcEnv.setupEndpointRef(RpcEnv.scala:96)
	at org.apache.spark.deploy.worker.Worker$$anonfun$org$apache$spark$deploy$worker$Worker$$reregisterWithMaster$1$$anon$2.run(Worker.scala:272)
	at java.util.concurrent.Executors$RunnableAdapter.call(Executors.java:471)
	at java.util.concurrent.FutureTask.run(FutureTask.java:262)
	at java.util.concurrent.ThreadPoolExecutor.runWorker(ThreadPoolExecutor.java:1145)
	at java.util.concurrent.ThreadPoolExecutor$Worker.run(ThreadPoolExecutor.java:615)
	at java.lang.Thread.run(Thread.java:745)
Caused by: java.io.IOException: Failed to connect to frontend.clasdpc.lan/192.168.0.200:7077
	at org.apache.spark.network.client.TransportClientFactory.createClient(TransportClientFactory.java:228)
	at org.apache.spark.network.client.TransportClientFactory.createClient(TransportClientFactory.java:179)
	at org.apache.spark.rpc.netty.NettyRpcEnv.createClient(NettyRpcEnv.scala:197)
	at org.apache.spark.rpc.netty.Outbox$$anon$1.call(Outbox.scala:191)
	at org.apache.spark.rpc.netty.Outbox$$anon$1.call(Outbox.scala:187)
	... 4 more
Caused by: java.net.ConnectException: Connection refused: frontend.clasdpc.lan/192.168.0.200:7077
	at sun.nio.ch.SocketChannelImpl.checkConnect(Native Method)
	at sun.nio.ch.SocketChannelImpl.finishConnect(SocketChannelImpl.java:744)
	at io.netty.channel.socket.nio.NioSocketChannel.doFinishConnect(NioSocketChannel.java:224)
	at io.netty.channel.nio.AbstractNioChannel$AbstractNioUnsafe.finishConnect(AbstractNioChannel.java:289)
	at io.netty.channel.nio.NioEventLoop.processSelectedKey(NioEventLoop.java:528)
	at io.netty.channel.nio.NioEventLoop.processSelectedKeysOptimized(NioEventLoop.java:468)
	at io.netty.channel.nio.NioEventLoop.processSelectedKeys(NioEventLoop.java:382)
	at io.netty.channel.nio.NioEventLoop.run(NioEventLoop.java:354)
	at io.netty.util.concurrent.SingleThreadEventExecutor$2.run(SingleThreadEventExecutor.java:111)
	... 1 more
16/10/14 22:46:32 INFO Worker: Retrying connection to master (attempt # 12)
16/10/14 22:46:32 INFO Worker: Connecting to master frontend.clasdpc.lan:7077...
16/10/14 22:46:32 INFO TransportClientFactory: Found inactive connection to frontend.clasdpc.lan/192.168.0.200:7077, creating a new one.
16/10/14 22:46:32 WARN Worker: Failed to connect to master frontend.clasdpc.lan:7077
org.apache.spark.SparkException: Exception thrown in awaitResult
	at org.apache.spark.rpc.RpcTimeout$$anonfun$1.applyOrElse(RpcTimeout.scala:77)
	at org.apache.spark.rpc.RpcTimeout$$anonfun$1.applyOrElse(RpcTimeout.scala:75)
	at scala.runtime.AbstractPartialFunction.apply(AbstractPartialFunction.scala:36)
	at org.apache.spark.rpc.RpcTimeout$$anonfun$addMessageIfTimeout$1.applyOrElse(RpcTimeout.scala:59)
	at org.apache.spark.rpc.RpcTimeout$$anonfun$addMessageIfTimeout$1.applyOrElse(RpcTimeout.scala:59)
	at scala.PartialFunction$OrElse.apply(PartialFunction.scala:167)
	at org.apache.spark.rpc.RpcTimeout.awaitResult(RpcTimeout.scala:83)
	at org.apache.spark.rpc.RpcEnv.setupEndpointRefByURI(RpcEnv.scala:88)
	at org.apache.spark.rpc.RpcEnv.setupEndpointRef(RpcEnv.scala:96)
	at org.apache.spark.deploy.worker.Worker$$anonfun$org$apache$spark$deploy$worker$Worker$$reregisterWithMaster$1$$anon$2.run(Worker.scala:272)
	at java.util.concurrent.Executors$RunnableAdapter.call(Executors.java:471)
	at java.util.concurrent.FutureTask.run(FutureTask.java:262)
	at java.util.concurrent.ThreadPoolExecutor.runWorker(ThreadPoolExecutor.java:1145)
	at java.util.concurrent.ThreadPoolExecutor$Worker.run(ThreadPoolExecutor.java:615)
	at java.lang.Thread.run(Thread.java:745)
Caused by: java.io.IOException: Failed to connect to frontend.clasdpc.lan/192.168.0.200:7077
	at org.apache.spark.network.client.TransportClientFactory.createClient(TransportClientFactory.java:228)
	at org.apache.spark.network.client.TransportClientFactory.createClient(TransportClientFactory.java:179)
	at org.apache.spark.rpc.netty.NettyRpcEnv.createClient(NettyRpcEnv.scala:197)
	at org.apache.spark.rpc.netty.Outbox$$anon$1.call(Outbox.scala:191)
	at org.apache.spark.rpc.netty.Outbox$$anon$1.call(Outbox.scala:187)
	... 4 more
Caused by: java.net.ConnectException: Connection refused: frontend.clasdpc.lan/192.168.0.200:7077
	at sun.nio.ch.SocketChannelImpl.checkConnect(Native Method)
	at sun.nio.ch.SocketChannelImpl.finishConnect(SocketChannelImpl.java:744)
	at io.netty.channel.socket.nio.NioSocketChannel.doFinishConnect(NioSocketChannel.java:224)
	at io.netty.channel.nio.AbstractNioChannel$AbstractNioUnsafe.finishConnect(AbstractNioChannel.java:289)
	at io.netty.channel.nio.NioEventLoop.processSelectedKey(NioEventLoop.java:528)
	at io.netty.channel.nio.NioEventLoop.processSelectedKeysOptimized(NioEventLoop.java:468)
	at io.netty.channel.nio.NioEventLoop.processSelectedKeys(NioEventLoop.java:382)
	at io.netty.channel.nio.NioEventLoop.run(NioEventLoop.java:354)
	at io.netty.util.concurrent.SingleThreadEventExecutor$2.run(SingleThreadEventExecutor.java:111)
	... 1 more
16/10/14 22:47:27 INFO Worker: Retrying connection to master (attempt # 13)
16/10/14 22:47:27 INFO Worker: Connecting to master frontend.clasdpc.lan:7077...
16/10/14 22:47:27 INFO TransportClientFactory: Found inactive connection to frontend.clasdpc.lan/192.168.0.200:7077, creating a new one.
16/10/14 22:47:27 WARN Worker: Failed to connect to master frontend.clasdpc.lan:7077
org.apache.spark.SparkException: Exception thrown in awaitResult
	at org.apache.spark.rpc.RpcTimeout$$anonfun$1.applyOrElse(RpcTimeout.scala:77)
	at org.apache.spark.rpc.RpcTimeout$$anonfun$1.applyOrElse(RpcTimeout.scala:75)
	at scala.runtime.AbstractPartialFunction.apply(AbstractPartialFunction.scala:36)
	at org.apache.spark.rpc.RpcTimeout$$anonfun$addMessageIfTimeout$1.applyOrElse(RpcTimeout.scala:59)
	at org.apache.spark.rpc.RpcTimeout$$anonfun$addMessageIfTimeout$1.applyOrElse(RpcTimeout.scala:59)
	at scala.PartialFunction$OrElse.apply(PartialFunction.scala:167)
	at org.apache.spark.rpc.RpcTimeout.awaitResult(RpcTimeout.scala:83)
	at org.apache.spark.rpc.RpcEnv.setupEndpointRefByURI(RpcEnv.scala:88)
	at org.apache.spark.rpc.RpcEnv.setupEndpointRef(RpcEnv.scala:96)
	at org.apache.spark.deploy.worker.Worker$$anonfun$org$apache$spark$deploy$worker$Worker$$reregisterWithMaster$1$$anon$2.run(Worker.scala:272)
	at java.util.concurrent.Executors$RunnableAdapter.call(Executors.java:471)
	at java.util.concurrent.FutureTask.run(FutureTask.java:262)
	at java.util.concurrent.ThreadPoolExecutor.runWorker(ThreadPoolExecutor.java:1145)
	at java.util.concurrent.ThreadPoolExecutor$Worker.run(ThreadPoolExecutor.java:615)
	at java.lang.Thread.run(Thread.java:745)
Caused by: java.io.IOException: Failed to connect to frontend.clasdpc.lan/192.168.0.200:7077
	at org.apache.spark.network.client.TransportClientFactory.createClient(TransportClientFactory.java:228)
	at org.apache.spark.network.client.TransportClientFactory.createClient(TransportClientFactory.java:179)
	at org.apache.spark.rpc.netty.NettyRpcEnv.createClient(NettyRpcEnv.scala:197)
	at org.apache.spark.rpc.netty.Outbox$$anon$1.call(Outbox.scala:191)
	at org.apache.spark.rpc.netty.Outbox$$anon$1.call(Outbox.scala:187)
	... 4 more
Caused by: java.net.ConnectException: Connection refused: frontend.clasdpc.lan/192.168.0.200:7077
	at sun.nio.ch.SocketChannelImpl.checkConnect(Native Method)
	at sun.nio.ch.SocketChannelImpl.finishConnect(SocketChannelImpl.java:744)
	at io.netty.channel.socket.nio.NioSocketChannel.doFinishConnect(NioSocketChannel.java:224)
	at io.netty.channel.nio.AbstractNioChannel$AbstractNioUnsafe.finishConnect(AbstractNioChannel.java:289)
	at io.netty.channel.nio.NioEventLoop.processSelectedKey(NioEventLoop.java:528)
	at io.netty.channel.nio.NioEventLoop.processSelectedKeysOptimized(NioEventLoop.java:468)
	at io.netty.channel.nio.NioEventLoop.processSelectedKeys(NioEventLoop.java:382)
	at io.netty.channel.nio.NioEventLoop.run(NioEventLoop.java:354)
	at io.netty.util.concurrent.SingleThreadEventExecutor$2.run(SingleThreadEventExecutor.java:111)
	... 1 more
16/10/14 22:48:22 INFO Worker: Retrying connection to master (attempt # 14)
16/10/14 22:48:22 INFO Worker: Connecting to master frontend.clasdpc.lan:7077...
16/10/14 22:48:22 INFO TransportClientFactory: Found inactive connection to frontend.clasdpc.lan/192.168.0.200:7077, creating a new one.
16/10/14 22:48:22 WARN Worker: Failed to connect to master frontend.clasdpc.lan:7077
org.apache.spark.SparkException: Exception thrown in awaitResult
	at org.apache.spark.rpc.RpcTimeout$$anonfun$1.applyOrElse(RpcTimeout.scala:77)
	at org.apache.spark.rpc.RpcTimeout$$anonfun$1.applyOrElse(RpcTimeout.scala:75)
	at scala.runtime.AbstractPartialFunction.apply(AbstractPartialFunction.scala:36)
	at org.apache.spark.rpc.RpcTimeout$$anonfun$addMessageIfTimeout$1.applyOrElse(RpcTimeout.scala:59)
	at org.apache.spark.rpc.RpcTimeout$$anonfun$addMessageIfTimeout$1.applyOrElse(RpcTimeout.scala:59)
	at scala.PartialFunction$OrElse.apply(PartialFunction.scala:167)
	at org.apache.spark.rpc.RpcTimeout.awaitResult(RpcTimeout.scala:83)
	at org.apache.spark.rpc.RpcEnv.setupEndpointRefByURI(RpcEnv.scala:88)
	at org.apache.spark.rpc.RpcEnv.setupEndpointRef(RpcEnv.scala:96)
	at org.apache.spark.deploy.worker.Worker$$anonfun$org$apache$spark$deploy$worker$Worker$$reregisterWithMaster$1$$anon$2.run(Worker.scala:272)
	at java.util.concurrent.Executors$RunnableAdapter.call(Executors.java:471)
	at java.util.concurrent.FutureTask.run(FutureTask.java:262)
	at java.util.concurrent.ThreadPoolExecutor.runWorker(ThreadPoolExecutor.java:1145)
	at java.util.concurrent.ThreadPoolExecutor$Worker.run(ThreadPoolExecutor.java:615)
	at java.lang.Thread.run(Thread.java:745)
Caused by: java.io.IOException: Failed to connect to frontend.clasdpc.lan/192.168.0.200:7077
	at org.apache.spark.network.client.TransportClientFactory.createClient(TransportClientFactory.java:228)
	at org.apache.spark.network.client.TransportClientFactory.createClient(TransportClientFactory.java:179)
	at org.apache.spark.rpc.netty.NettyRpcEnv.createClient(NettyRpcEnv.scala:197)
	at org.apache.spark.rpc.netty.Outbox$$anon$1.call(Outbox.scala:191)
	at org.apache.spark.rpc.netty.Outbox$$anon$1.call(Outbox.scala:187)
	... 4 more
Caused by: java.net.ConnectException: Connection refused: frontend.clasdpc.lan/192.168.0.200:7077
	at sun.nio.ch.SocketChannelImpl.checkConnect(Native Method)
	at sun.nio.ch.SocketChannelImpl.finishConnect(SocketChannelImpl.java:744)
	at io.netty.channel.socket.nio.NioSocketChannel.doFinishConnect(NioSocketChannel.java:224)
	at io.netty.channel.nio.AbstractNioChannel$AbstractNioUnsafe.finishConnect(AbstractNioChannel.java:289)
	at io.netty.channel.nio.NioEventLoop.processSelectedKey(NioEventLoop.java:528)
	at io.netty.channel.nio.NioEventLoop.processSelectedKeysOptimized(NioEventLoop.java:468)
	at io.netty.channel.nio.NioEventLoop.processSelectedKeys(NioEventLoop.java:382)
	at io.netty.channel.nio.NioEventLoop.run(NioEventLoop.java:354)
	at io.netty.util.concurrent.SingleThreadEventExecutor$2.run(SingleThreadEventExecutor.java:111)
	... 1 more
16/10/14 22:49:17 INFO Worker: Retrying connection to master (attempt # 15)
16/10/14 22:49:17 INFO Worker: Connecting to master frontend.clasdpc.lan:7077...
16/10/14 22:49:17 INFO TransportClientFactory: Found inactive connection to frontend.clasdpc.lan/192.168.0.200:7077, creating a new one.
16/10/14 22:49:17 WARN Worker: Failed to connect to master frontend.clasdpc.lan:7077
org.apache.spark.SparkException: Exception thrown in awaitResult
	at org.apache.spark.rpc.RpcTimeout$$anonfun$1.applyOrElse(RpcTimeout.scala:77)
	at org.apache.spark.rpc.RpcTimeout$$anonfun$1.applyOrElse(RpcTimeout.scala:75)
	at scala.runtime.AbstractPartialFunction.apply(AbstractPartialFunction.scala:36)
	at org.apache.spark.rpc.RpcTimeout$$anonfun$addMessageIfTimeout$1.applyOrElse(RpcTimeout.scala:59)
	at org.apache.spark.rpc.RpcTimeout$$anonfun$addMessageIfTimeout$1.applyOrElse(RpcTimeout.scala:59)
	at scala.PartialFunction$OrElse.apply(PartialFunction.scala:167)
	at org.apache.spark.rpc.RpcTimeout.awaitResult(RpcTimeout.scala:83)
	at org.apache.spark.rpc.RpcEnv.setupEndpointRefByURI(RpcEnv.scala:88)
	at org.apache.spark.rpc.RpcEnv.setupEndpointRef(RpcEnv.scala:96)
	at org.apache.spark.deploy.worker.Worker$$anonfun$org$apache$spark$deploy$worker$Worker$$reregisterWithMaster$1$$anon$2.run(Worker.scala:272)
	at java.util.concurrent.Executors$RunnableAdapter.call(Executors.java:471)
	at java.util.concurrent.FutureTask.run(FutureTask.java:262)
	at java.util.concurrent.ThreadPoolExecutor.runWorker(ThreadPoolExecutor.java:1145)
	at java.util.concurrent.ThreadPoolExecutor$Worker.run(ThreadPoolExecutor.java:615)
	at java.lang.Thread.run(Thread.java:745)
Caused by: java.io.IOException: Failed to connect to frontend.clasdpc.lan/192.168.0.200:7077
	at org.apache.spark.network.client.TransportClientFactory.createClient(TransportClientFactory.java:228)
	at org.apache.spark.network.client.TransportClientFactory.createClient(TransportClientFactory.java:179)
	at org.apache.spark.rpc.netty.NettyRpcEnv.createClient(NettyRpcEnv.scala:197)
	at org.apache.spark.rpc.netty.Outbox$$anon$1.call(Outbox.scala:191)
	at org.apache.spark.rpc.netty.Outbox$$anon$1.call(Outbox.scala:187)
	... 4 more
Caused by: java.net.ConnectException: Connection refused: frontend.clasdpc.lan/192.168.0.200:7077
	at sun.nio.ch.SocketChannelImpl.checkConnect(Native Method)
	at sun.nio.ch.SocketChannelImpl.finishConnect(SocketChannelImpl.java:744)
	at io.netty.channel.socket.nio.NioSocketChannel.doFinishConnect(NioSocketChannel.java:224)
	at io.netty.channel.nio.AbstractNioChannel$AbstractNioUnsafe.finishConnect(AbstractNioChannel.java:289)
	at io.netty.channel.nio.NioEventLoop.processSelectedKey(NioEventLoop.java:528)
	at io.netty.channel.nio.NioEventLoop.processSelectedKeysOptimized(NioEventLoop.java:468)
	at io.netty.channel.nio.NioEventLoop.processSelectedKeys(NioEventLoop.java:382)
	at io.netty.channel.nio.NioEventLoop.run(NioEventLoop.java:354)
	at io.netty.util.concurrent.SingleThreadEventExecutor$2.run(SingleThreadEventExecutor.java:111)
	... 1 more
16/10/14 22:50:12 INFO Worker: Retrying connection to master (attempt # 16)
16/10/14 22:50:12 INFO Worker: Connecting to master frontend.clasdpc.lan:7077...
16/10/14 22:50:12 INFO TransportClientFactory: Found inactive connection to frontend.clasdpc.lan/192.168.0.200:7077, creating a new one.
16/10/14 22:50:12 WARN Worker: Failed to connect to master frontend.clasdpc.lan:7077
org.apache.spark.SparkException: Exception thrown in awaitResult
	at org.apache.spark.rpc.RpcTimeout$$anonfun$1.applyOrElse(RpcTimeout.scala:77)
	at org.apache.spark.rpc.RpcTimeout$$anonfun$1.applyOrElse(RpcTimeout.scala:75)
	at scala.runtime.AbstractPartialFunction.apply(AbstractPartialFunction.scala:36)
	at org.apache.spark.rpc.RpcTimeout$$anonfun$addMessageIfTimeout$1.applyOrElse(RpcTimeout.scala:59)
	at org.apache.spark.rpc.RpcTimeout$$anonfun$addMessageIfTimeout$1.applyOrElse(RpcTimeout.scala:59)
	at scala.PartialFunction$OrElse.apply(PartialFunction.scala:167)
	at org.apache.spark.rpc.RpcTimeout.awaitResult(RpcTimeout.scala:83)
	at org.apache.spark.rpc.RpcEnv.setupEndpointRefByURI(RpcEnv.scala:88)
	at org.apache.spark.rpc.RpcEnv.setupEndpointRef(RpcEnv.scala:96)
	at org.apache.spark.deploy.worker.Worker$$anonfun$org$apache$spark$deploy$worker$Worker$$reregisterWithMaster$1$$anon$2.run(Worker.scala:272)
	at java.util.concurrent.Executors$RunnableAdapter.call(Executors.java:471)
	at java.util.concurrent.FutureTask.run(FutureTask.java:262)
	at java.util.concurrent.ThreadPoolExecutor.runWorker(ThreadPoolExecutor.java:1145)
	at java.util.concurrent.ThreadPoolExecutor$Worker.run(ThreadPoolExecutor.java:615)
	at java.lang.Thread.run(Thread.java:745)
Caused by: java.io.IOException: Failed to connect to frontend.clasdpc.lan/192.168.0.200:7077
	at org.apache.spark.network.client.TransportClientFactory.createClient(TransportClientFactory.java:228)
	at org.apache.spark.network.client.TransportClientFactory.createClient(TransportClientFactory.java:179)
	at org.apache.spark.rpc.netty.NettyRpcEnv.createClient(NettyRpcEnv.scala:197)
	at org.apache.spark.rpc.netty.Outbox$$anon$1.call(Outbox.scala:191)
	at org.apache.spark.rpc.netty.Outbox$$anon$1.call(Outbox.scala:187)
	... 4 more
Caused by: java.net.ConnectException: Connection refused: frontend.clasdpc.lan/192.168.0.200:7077
	at sun.nio.ch.SocketChannelImpl.checkConnect(Native Method)
	at sun.nio.ch.SocketChannelImpl.finishConnect(SocketChannelImpl.java:744)
	at io.netty.channel.socket.nio.NioSocketChannel.doFinishConnect(NioSocketChannel.java:224)
	at io.netty.channel.nio.AbstractNioChannel$AbstractNioUnsafe.finishConnect(AbstractNioChannel.java:289)
	at io.netty.channel.nio.NioEventLoop.processSelectedKey(NioEventLoop.java:528)
	at io.netty.channel.nio.NioEventLoop.processSelectedKeysOptimized(NioEventLoop.java:468)
	at io.netty.channel.nio.NioEventLoop.processSelectedKeys(NioEventLoop.java:382)
	at io.netty.channel.nio.NioEventLoop.run(NioEventLoop.java:354)
	at io.netty.util.concurrent.SingleThreadEventExecutor$2.run(SingleThreadEventExecutor.java:111)
	... 1 more
16/10/14 22:51:07 ERROR Worker: All masters are unresponsive! Giving up.
