Spark Command: /usr/lib/jvm/java-7-openjdk-amd64/jre/bin/java -cp /opt/bigdata/spark-2.0.1-bin-hadoop2.7/conf/:/opt/bigdata/spark-2.0.1-bin-hadoop2.7/jars/* -Xmx1g -XX:MaxPermSize=256m org.apache.spark.deploy.worker.Worker --webui-port 8081 10.1.1.200
========================================
Using Spark's default log4j profile: org/apache/spark/log4j-defaults.properties
16/10/14 16:38:37 INFO Worker: Started daemon with process name: 17681@node02
16/10/14 16:38:37 INFO SignalUtils: Registered signal handler for TERM
16/10/14 16:38:37 INFO SignalUtils: Registered signal handler for HUP
16/10/14 16:38:37 INFO SignalUtils: Registered signal handler for INT
16/10/14 16:38:38 WARN NativeCodeLoader: Unable to load native-hadoop library for your platform... using builtin-java classes where applicable
16/10/14 16:38:38 INFO SecurityManager: Changing view acls to: root
16/10/14 16:38:38 INFO SecurityManager: Changing modify acls to: root
16/10/14 16:38:38 INFO SecurityManager: Changing view acls groups to: 
16/10/14 16:38:38 INFO SecurityManager: Changing modify acls groups to: 
16/10/14 16:38:38 INFO SecurityManager: SecurityManager: authentication disabled; ui acls disabled; users  with view permissions: Set(root); groups with view permissions: Set(); users  with modify permissions: Set(root); groups with modify permissions: Set()
16/10/14 16:38:39 INFO Utils: Successfully started service 'sparkWorker' on port 52604.
Exception in thread "main" org.apache.spark.SparkException: Invalid master URL: spark://10.1.1.200
	at org.apache.spark.util.Utils$.extractHostPortFromSparkUrl(Utils.scala:2250)
	at org.apache.spark.rpc.RpcAddress$.fromSparkURL(RpcAddress.scala:47)
	at org.apache.spark.deploy.worker.Worker$$anonfun$13.apply(Worker.scala:714)
	at org.apache.spark.deploy.worker.Worker$$anonfun$13.apply(Worker.scala:714)
	at scala.collection.TraversableLike$$anonfun$map$1.apply(TraversableLike.scala:234)
	at scala.collection.TraversableLike$$anonfun$map$1.apply(TraversableLike.scala:234)
	at scala.collection.IndexedSeqOptimized$class.foreach(IndexedSeqOptimized.scala:33)
	at scala.collection.mutable.ArrayOps$ofRef.foreach(ArrayOps.scala:186)
	at scala.collection.TraversableLike$class.map(TraversableLike.scala:234)
	at scala.collection.mutable.ArrayOps$ofRef.map(ArrayOps.scala:186)
	at org.apache.spark.deploy.worker.Worker$.startRpcEnvAndEndpoint(Worker.scala:714)
	at org.apache.spark.deploy.worker.Worker$.main(Worker.scala:694)
	at org.apache.spark.deploy.worker.Worker.main(Worker.scala)
